{"result_set":[{

    "thisworldis": [
        {
              "title":      "contact me"
            , "ingress":    "if you want to reach out"
            , "body":       "<b>secure messaging</b><br>i can be contacted using the messenger application <a href='https://threema.ch/en' target='_blank'>threema</a> where my threema id is 8EN7343P<br><br><b>insecure e-mailing</b><br>frode at thisworld dot is<br><br><b>postal address</b><br>frode burdal klevstul, folke bernadottes vei 2, 0862 oslo, norway (<a href='https://goo.gl/maps/gnBLjfzRTUz' target='_blank'>map</a>)<br><br><b>facebook</b><br>please do not send me messages through facebook messenger. i do not reply as i seldom log on to facebook."
        }
        ,
        {
              "title":      "background story"
            , "ingress":    "a few words about frode burdal klevstul"
            , "body":       "entering this world, i got the name <a href='https://en.wikipedia.org/wiki/Fr%C3%B3%C3%B0i' target='_blank'>frode</a>. my family name klevstul has its roots from <a href='https://goo.gl/maps/u2GNSkJrx9p' target='_blank'>kleivstaul</a> in <a href='https://en.wikipedia.org/wiki/Kviteseid' target='_blank'>kviteseid</a>, <a href='https://en.wikipedia.org/wiki/Telemark' target='_blank'>telemark</a>, norway. it was my grandfather <a href='http://www.soge.kviteseid.no/individual.php?pid=I38615&ged=Kviteseid.GED' target='_blank'>trygve klevstul</a> who grew up at the 'kleivstaul farm', which now has been <a href='http://ljo-s.blogspot.com/' target='_blank'>beautifully renovated</a>. trygve moved to <a href='https://en.wikipedia.org/wiki/Sauda' target='_blank'>sauda</a> for work, where he met my grandmother olga halvorsen, originally from <a href='https://en.wikipedia.org/wiki/Skien' target='_blank'>skien</a>. they got two sons, tor and einar. around the same time, in the <a href='https://en.wikipedia.org/wiki/Ringsaker' target='_blank'>ringsaker</a> and <a href='https://en.wikipedia.org/wiki/Lillehammer' target='_blank'>lillehammer</a> area, east in norway, one girl named gudrun emilie krogrud, and one boy named aksel kolbjørn burdal, fell in love. they got two daughters, randi and berit. both berit and einar attended the same school in their quest for becoming teachers. one thing leads to another; the result is marriage and three kids. astrid, ida and frode. the latter being me. for the purpose of balance i changed my name from 'frode klevstul' to 'frode burdal klevstul'. thisworld.is my digital home. here i will present all my digital content."
        }
        ,
        {
              "title":      "foreNeno"
            , "ingress":    "the solution powering this site"
            , "body":       "one of my great passions in life is to build stuff. one thing i have built is the content management platform running this very site. for details visit <a href='http://foreNeno.com' target='_blank'>foreNeno.com</a>."
        }
    ]

}]}
